<svg width="64" height="64" viewBox="0 0 64 64" fill="none" xmlns="http://www.w3.org/2000/svg">
<circle r="23" transform="matrix(-1 0 0 1 32 32)" stroke="#FFC5E3" stroke-width="2"/>
<mask id="path-2-inside-1_705_856" fill="white">
<path d="M15.6123 59.4853C20.3465 62.308 25.7294 63.86 31.2396 63.991C36.7498 64.1219 42.2005 62.8274 47.0634 60.2329C51.9263 57.6383 56.0366 53.8317 58.996 49.1818C61.9554 44.532 63.6637 39.1965 63.9552 33.6925C64.2467 28.1885 63.1116 22.7024 60.6599 17.766C58.2082 12.8295 54.523 8.60999 49.9614 5.51628C45.3998 2.42256 40.1164 0.559528 34.6232 0.1077C29.13 -0.344127 23.6132 0.630568 18.6074 2.93735L19.4884 4.84921C24.1649 2.69419 29.3188 1.78361 34.4506 2.20572C39.5825 2.62782 44.5183 4.36829 48.7798 7.25849C53.0414 10.1487 56.4841 14.0906 58.7746 18.7023C61.065 23.3141 62.1254 28.4392 61.8531 33.5812C61.5807 38.7231 59.9848 43.7076 57.2201 48.0515C54.4553 52.3955 50.6154 55.9517 46.0724 58.3756C41.5294 60.7995 36.4374 62.0088 31.2897 61.8865C26.1419 61.7641 21.1131 60.3142 16.6904 57.6772L15.6123 59.4853Z"/>
</mask>
<path d="M15.6123 59.4853C20.3465 62.308 25.7294 63.86 31.2396 63.991C36.7498 64.1219 42.2005 62.8274 47.0634 60.2329C51.9263 57.6383 56.0366 53.8317 58.996 49.1818C61.9554 44.532 63.6637 39.1965 63.9552 33.6925C64.2467 28.1885 63.1116 22.7024 60.6599 17.766C58.2082 12.8295 54.523 8.60999 49.9614 5.51628C45.3998 2.42256 40.1164 0.559528 34.6232 0.1077C29.13 -0.344127 23.6132 0.630568 18.6074 2.93735L19.4884 4.84921C24.1649 2.69419 29.3188 1.78361 34.4506 2.20572C39.5825 2.62782 44.5183 4.36829 48.7798 7.25849C53.0414 10.1487 56.4841 14.0906 58.7746 18.7023C61.065 23.3141 62.1254 28.4392 61.8531 33.5812C61.5807 38.7231 59.9848 43.7076 57.2201 48.0515C54.4553 52.3955 50.6154 55.9517 46.0724 58.3756C41.5294 60.7995 36.4374 62.0088 31.2897 61.8865C26.1419 61.7641 21.1131 60.3142 16.6904 57.6772L15.6123 59.4853Z" stroke="#FFC5E3" stroke-width="4" stroke-linejoin="round" mask="url(#path-2-inside-1_705_856)"/>
</svg>
