<svg width="40" height="40" viewBox="0 0 40 40" fill="none" xmlns="http://www.w3.org/2000/svg">
<circle cx="20" cy="20" r="14" stroke="#FEB17E" stroke-width="2"/>
<mask id="path-2-inside-1_705_828" fill="white">
<path d="M30.2423 37.1783C27.2835 38.9425 23.9191 39.9125 20.4752 39.9944C17.0313 40.0762 13.6247 39.2671 10.5854 37.6455C7.54609 36.024 4.97715 33.6448 3.1275 30.7387C1.27784 27.8325 0.210194 24.4978 0.0279938 21.0578C-0.154207 17.6178 0.555221 14.189 2.08754 11.1037C3.61985 8.01844 5.9231 5.38125 8.77412 3.44767C11.6251 1.5141 14.9272 0.349705 18.3605 0.0673126C21.7938 -0.21508 25.2417 0.394105 28.3704 1.83584L27.5152 3.69165C24.7062 2.39722 21.6105 1.85027 18.528 2.10381C15.4455 2.35735 12.4808 3.40278 9.92105 5.13881C7.36132 6.87483 5.29339 9.24258 3.91763 12.0127C2.54187 14.7827 1.90493 17.8612 2.06851 20.9497C2.2321 24.0383 3.19067 27.0323 4.85134 29.6415C6.51202 32.2507 8.81849 34.3868 11.5473 35.8427C14.2761 37.2986 17.3347 38.025 20.4267 37.9516C23.5187 37.8781 26.5393 37.0072 29.1958 35.4233L30.2423 37.1783Z"/>
</mask>
<path d="M30.2423 37.1783C27.2835 38.9425 23.9191 39.9125 20.4752 39.9944C17.0313 40.0762 13.6247 39.2671 10.5854 37.6455C7.54609 36.024 4.97715 33.6448 3.1275 30.7387C1.27784 27.8325 0.210194 24.4978 0.0279938 21.0578C-0.154207 17.6178 0.555221 14.189 2.08754 11.1037C3.61985 8.01844 5.9231 5.38125 8.77412 3.44767C11.6251 1.5141 14.9272 0.349705 18.3605 0.0673126C21.7938 -0.21508 25.2417 0.394105 28.3704 1.83584L27.5152 3.69165C24.7062 2.39722 21.6105 1.85027 18.528 2.10381C15.4455 2.35735 12.4808 3.40278 9.92105 5.13881C7.36132 6.87483 5.29339 9.24258 3.91763 12.0127C2.54187 14.7827 1.90493 17.8612 2.06851 20.9497C2.2321 24.0383 3.19067 27.0323 4.85134 29.6415C6.51202 32.2507 8.81849 34.3868 11.5473 35.8427C14.2761 37.2986 17.3347 38.025 20.4267 37.9516C23.5187 37.8781 26.5393 37.0072 29.1958 35.4233L30.2423 37.1783Z" stroke="#FEB17E" stroke-width="4" stroke-linejoin="round" mask="url(#path-2-inside-1_705_828)"/>
</svg>
