<svg width="14" height="14" viewBox="0 0 14 14" fill="none" xmlns="http://www.w3.org/2000/svg">
<path d="M13.4572 6.39446C13.7229 6.13549 13.8167 5.75541 13.7021 5.4021C13.5872 5.04878 13.288 4.79657 12.9203 4.74305L9.65155 4.26809C9.51234 4.24781 9.39204 4.1605 9.32987 4.03426L7.86849 1.07258C7.70441 0.739812 7.37137 0.533014 7.00021 0.533014C6.62933 0.533014 6.29629 0.739812 6.1322 1.07258L4.67056 4.03453C4.60838 4.16077 4.48782 4.24808 4.3486 4.26836L1.07984 4.74332C0.712469 4.79657 0.412949 5.04905 0.298062 5.40237C0.183444 5.75568 0.277247 6.13576 0.542975 6.39473L2.90804 8.70006C3.00887 8.79845 3.0551 8.9401 3.03131 9.07851L2.47336 12.3338C2.42389 12.6203 2.49904 12.899 2.68448 13.1188C2.97265 13.4613 3.47572 13.5656 3.87797 13.3542L6.80125 11.8172C6.92344 11.7531 7.07725 11.7536 7.19917 11.8172L10.1227 13.3542C10.2649 13.4291 10.4166 13.467 10.5731 13.467C10.8588 13.467 11.1297 13.3399 11.3159 13.1188C11.5017 12.899 11.5765 12.6198 11.5271 12.3338L10.9688 9.07851C10.9451 8.93983 10.9913 8.79845 11.0921 8.70006L13.4572 6.39446Z" fill="#FFC5E3"/>
</svg>
