<svg width="21" height="20" viewBox="0 0 21 20" fill="none" xmlns="http://www.w3.org/2000/svg">
<g clip-path="url(#clip0_712_853)">
<path d="M10.3582 9.63406C11.6818 9.63406 12.8279 9.15936 13.7643 8.22278C14.7007 7.28635 15.1754 6.14057 15.1754 4.81688C15.1754 3.49364 14.7007 2.34771 13.7641 1.41097C12.8275 0.474699 11.6816 0 10.3582 0C9.03452 0 7.88873 0.474699 6.9523 1.41113C6.01587 2.34756 5.54102 3.49349 5.54102 4.81688C5.54102 6.14057 6.01587 7.2865 6.95245 8.22293C7.88904 9.1592 9.03497 9.63406 10.3582 9.63406Z" fill="url(#paint0_linear_712_853)"/>
<path d="M18.7863 15.3791C18.7593 14.9894 18.7046 14.5643 18.6242 14.1154C18.5431 13.6631 18.4385 13.2356 18.3134 12.8448C18.1842 12.4409 18.0084 12.042 17.7911 11.6598C17.5656 11.2631 17.3007 10.9176 17.0034 10.6333C16.6926 10.3359 16.3121 10.0968 15.872 9.92242C15.4335 9.74893 14.9475 9.66104 14.4276 9.66104C14.2234 9.66104 14.026 9.74481 13.6447 9.99307C13.41 10.1461 13.1355 10.3231 12.8291 10.5189C12.5671 10.6858 12.2122 10.8422 11.7738 10.9838C11.3461 11.1222 10.9118 11.1924 10.4832 11.1924C10.0546 11.1924 9.62048 11.1222 9.19232 10.9838C8.75439 10.8424 8.39947 10.686 8.13779 10.519C7.83429 10.3251 7.55963 10.1481 7.32144 9.99292C6.94058 9.74466 6.74298 9.66089 6.53882 9.66089C6.0188 9.66089 5.53296 9.74893 5.09457 9.92258C4.65482 10.0967 4.27411 10.3358 3.96298 10.6335C3.66589 10.9179 3.40085 11.2632 3.17563 11.6598C2.9585 12.042 2.78271 12.4407 2.65332 12.8449C2.52835 13.2357 2.42383 13.6631 2.34265 14.1154C2.26224 14.5637 2.20761 14.9889 2.1806 15.3796C2.15405 15.7622 2.14062 16.1594 2.14062 16.5606C2.14062 17.6046 2.4725 18.4498 3.12695 19.0731C3.77332 19.6882 4.62857 20.0002 5.66861 20.0002H15.2987C16.3388 20.0002 17.1937 19.6883 17.8402 19.0731C18.4948 18.4502 18.8267 17.6049 18.8267 16.5604C18.8266 16.1574 18.813 15.76 18.7863 15.3791Z" fill="url(#paint1_linear_712_853)"/>
</g>
<defs>
<linearGradient id="paint0_linear_712_853" x1="5.54102" y1="4.81703" x2="15.1754" y2="4.81703" gradientUnits="userSpaceOnUse">
<stop stop-color="#9D7EFF"/>
<stop offset="0.578125" stop-color="#D48DFF"/>
<stop offset="1" stop-color="#FFB6DC"/>
</linearGradient>
<linearGradient id="paint1_linear_712_853" x1="2.14062" y1="14.8305" x2="18.8267" y2="14.8305" gradientUnits="userSpaceOnUse">
<stop stop-color="#9D7EFF"/>
<stop offset="0.578125" stop-color="#D48DFF"/>
<stop offset="1" stop-color="#FFB6DC"/>
</linearGradient>
<clipPath id="clip0_712_853">
<rect width="20" height="20" fill="white" transform="translate(0.5)"/>
</clipPath>
</defs>
</svg>
